Chapter 4 Analiza i transformacja danych | Kurs R - Tutorial
…
4.3 Sortowanie

Do sortowania danych można użyć funkcji arrange(). Jako argumenty wystarczy podać nazwy kolumn według których dane mają być posortowane. Domyślnie sortuje rosnąco. Jeżeli dana kolumna ma być posortowana malejąco należy dodać do jej nazwy desc().

Natomiast do zmiany położenia kolumn w danych służy funkcja select lub relocate. select pozwala też na usunięcie kolumn, jako argumenty trzeba po prostu podać nazwy kolumn w takiej kolejności jak chcemy żeby znalazły się wynikach. W przypadku relocate kolumny nigdy nie zostaną usunięte z danych, można kontrolować pozycję przenoszonej kolumny przy pomocy argumentów .after i .before.

library(palmerpenguins)

# sortowanie po jednej zmiennej
penguins %>% arrange(body_mass_g)

## # A tibble: 344 × 8
##    species   island    bill_length_mm bill_depth_mm flipper_length_… body_mass_g
##    <fct>     <fct>              <dbl>         <dbl>            <int>       <int>
##  1 Chinstrap Dream               46.9          16.6              192        2700
##  2 Adelie    Biscoe              36.5          16.6              181        2850
##  3 Adelie    Biscoe              36.4          17.1              184        2850
##  4 Adelie    Biscoe              34.5          18.1              187        2900
##  5 Adelie    Dream               33.1          16.1              178        2900
##  6 Adelie    Torgersen           38.6          17                188        2900
##  7 Chinstrap Dream               43.2          16.6              187        2900
##  8 Adelie    Biscoe              37.9          18.6              193        2925
##  9 Adelie    Dream               37.5          18.9              179        2975
## 10 Adelie    Dream               37            16.9              185        3000
## # … with 334 more rows, and 2 more variables: sex <fct>, year <int>

# wiele zmiennych
penguins %>% arrange(species, desc(island), bill_length_mm)

## # A tibble: 344 × 8
##    species island    bill_length_mm bill_depth_mm flipper_length_mm body_mass_g
##    <fct>   <fct>              <dbl>         <dbl>             <int>       <int>
##  1 Adelie  Torgersen           33.5          19                 190        3600
##  2 Adelie  Torgersen           34.1          18.1               193        3475
##  3 Adelie  Torgersen           34.4          18.4               184        3325
##  4 Adelie  Torgersen           34.6          21.1               198        4400
##  5 Adelie  Torgersen           34.6          17.2               189        3200
##  6 Adelie  Torgersen           35.1          19.4               193        4200
##  7 Adelie  Torgersen           35.2          15.9               186        3050
##  8 Adelie  Torgersen           35.5          17.5               190        3700
##  9 Adelie  Torgersen           35.7          17                 189        3350
## 10 Adelie  Torgersen           35.9          16.6               190        3050
## # … with 334 more rows, and 2 more variables: sex <fct>, year <int>

# przykład relocate
penguins %>% relocate(year, .after = island)

## # A tibble: 344 × 8
##    species island     year bill_length_mm bill_depth_mm flipper_length_mm
##    <fct>   <fct>     <int>          <dbl>         <dbl>             <int>
##  1 Adelie  Torgersen  2007           39.1          18.7               181
##  2 Adelie  Torgersen  2007           39.5          17.4               186
##  3 Adelie  Torgersen  2007           40.3          18                 195
##  4 Adelie  Torgersen  2007           NA            NA                  NA
##  5 Adelie  Torgersen  2007           36.7          19.3               193
##  6 Adelie  Torgersen  2007           39.3          20.6               190
##  7 Adelie  Torgersen  2007           38.9          17.8               181
##  8 Adelie  Torgersen  2007           39.2          19.6               195
##  9 Adelie  Torgersen  2007           34.1          18.1               193
## 10 Adelie  Torgersen  2007           42            20.2               190
## # … with 334 more rows, and 2 more variables: body_mass_g <int>, sex <fct>

# przenoszenie kilku zmiennych naraz z wykorzystaniem starts_with
penguins %>% relocate(starts_with('bill'), .after = body_mass_g)

## # A tibble: 344 × 8
##    species island    flipper_length_mm body_mass_g bill_length_mm bill_depth_mm
##    <fct>   <fct>                 <int>       <int>          <dbl>         <dbl>
##  1 Adelie  Torgersen               181        3750           39.1          18.7
##  2 Adelie  Torgersen               186        3800           39.5          17.4
##  3 Adelie  Torgersen               195        3250           40.3          18  
##  4 Adelie  Torgersen                NA          NA           NA            NA  
##  5 Adelie  Torgersen               193        3450           36.7          19.3
##  6 Adelie  Torgersen               190        3650           39.3          20.6
##  7 Adelie  Torgersen               181        3625           38.9          17.8
##  8 Adelie  Torgersen               195        4675           39.2          19.6
##  9 Adelie  Torgersen               193        3475           34.1          18.1
## 10 Adelie  Torgersen               190        4250           42            20.2
## # … with 334 more rows, and 2 more variables: sex <fct>, year <int>

# to samo ale z select - więcej pisania ;)
penguins %>% select(species, island, flipper_length_mm, body_mass_g, bill_length_mm, bill_depth_mm, sex, year)

## # A tibble: 344 × 8
##    species island    flipper_length_mm body_mass_g bill_length_mm bill_depth_mm
##    <fct>   <fct>                 <int>       <int>          <dbl>         <dbl>
##  1 Adelie  Torgersen               181        3750           39.1          18.7
##  2 Adelie  Torgersen               186        3800           39.5          17.4
##  3 Adelie  Torgersen               195        3250           40.3          18  
##  4 Adelie  Torgersen                NA          NA           NA            NA  
##  5 Adelie  Torgersen               193        3450           36.7          19.3
##  6 Adelie  Torgersen               190        3650           39.3          20.6
##  7 Adelie  Torgersen               181        3625           38.9          17.8
##  8 Adelie  Torgersen               195        4675           39.2          19.6
##  9 Adelie  Torgersen               193        3475           34.1          18.1
## 10 Adelie  Torgersen               190        4250           42            20.2
## # … with 334 more rows, and 2 more variables: sex <fct>, year <int>
…
